{
    "leads": {
        "update": {
            "0": {
                "id": "27062451",
                "name": "emir8 Consult sfd",
                "status_id": "24374827",
                "old_status_id": "24374821",
                "price": "77",
                "responsible_user_id": "7307272",
                "last_modified": "1645712885",
                "modified_user_id": "7411222",
                "created_user_id": "7307272",
                "date_create": "1628518987",
                "pipeline_id": "1601560",
                "account_id": "9585804",
                "custom_fields": [
                    {
                        "id": "1517509",
                        "name": "emir_reservation_date",
                        "values": [
                            "1628802000"
                        ]
                    },
                    {
                        "id": "1518875",
                        "name": "Источник",
                        "values": [
                            {
                                "value": "Вебинары",
                                "enum": "2355117"
                            },
                            {
                                "value": "Другое",
                                "enum": "2355121"
                            }
                        ]
                    },
                    {
                        "id": "1518877",
                        "name": "Курс",
                        "values": [
                            {
                                "value": "32.Акварельная живопись",
                                "enum": "2355125"
                            },
                            {
                                "value": "25.(Архив) Анимация интерфейсов",
                                "enum": "2355129"
                            }
                        ]
                    },
                    {
                        "id": "1520183",
                        "name": "Направление_список",
                        "values": [
                            {
                                "value": "Направление3",
                                "enum": "2356189"
                            }
                        ]
                    }
                ],
                "created_at": "1628518987",
                "updated_at": "1645712885"
            }
        }
    }
}